{
	"info": {
		"_postman_id": "f95b379d-12bb-49aa-b1e9-67257ca7ca76",
		"name": "Klub",
		"schema": "https://schema.getpostman.com/json/collection/v2.1.0/collection.json"
	},
	"item": [
		{
			"name": "Login",
			"request": {
				"method": "POST",
				"header": [],
				"body": {
					"mode": "raw",
					"raw": "{\r\n    \"username\": \"robin.l.07@live.fr\",\r\n    \"password\": \"azerty123\"\r\n} ",
					"options": {
						"raw": {
							"language": "json"
						}
					}
				},
				"url": {
					"raw": "http://{{URL}}/api/login_check",
					"protocol": "http",
					"host": [
						"{{URL}}"
					],
					"path": [
						"api",
						"login_check"
					]
				}
			},
			"response": []
		},
		{
			"name": "Users Get",
			"request": {
				"method": "GET",
				"header": [],
				"url": {
					"raw": "http://{{URL}}/api/users",
					"protocol": "http",
					"host": [
						"{{URL}}"
					],
					"path": [
						"api",
						"users"
					]
				}
			},
			"response": []
		},
		{
			"name": "Register",
			"request": {
				"method": "POST",
				"header": [],
				"body": {
					"mode": "raw",
					"raw": "{\r\n    \"email\": \"user@yopmail.com\",\r\n    \"password\": \"azerty123\",\r\n    \"role\": \"ROLE_CUSTOMER\"\r\n}",
					"options": {
						"raw": {
							"language": "json"
						}
					}
				},
				"url": {
					"raw": "http://{{URL}}/api/register",
					"protocol": "http",
					"host": [
						"{{URL}}"
					],
					"path": [
						"api",
						"register"
					]
				}
			},
			"response": []
		},
		{
			"name": "Products Get",
			"request": {
				"auth": {
					"type": "bearer",
					"bearer": [
						{
							"key": "token",
							"value": "eyJ0eXAiOiJKV1QiLCJhbGciOiJSUzI1NiJ9.eyJpYXQiOjE2MDgzOTE1NjcsImV4cCI6MTYwODM5NTE2Nywicm9sZXMiOlsiUk9MRV9VU0VSIl0sInVzZXJuYW1lIjoicm9iaW4ubC4wN0BsaXZlLmZyIn0.Iq415invelB6LhqgfjTlj4GnFnYaI3RpAdk4yCMO0hsKyVkoUEH-Qns3UQ8aCnDpwA3bMTt239ZImExpt697HdH3_rln_75AH7SIRhkqUUVF1ZsUwIyD6UXj-SeFsseH2RXMj92wzMpzlv0ifvtl2hJaIEXmUHXVDznv8jG32XDvmPmzyUEPMRAHFB0MNPO7lhL7RNbwq1umcje3NerawN6kFn8XQbrsODtp7hJe0F8CEEMvW5qqeniYZo_niOq9HO1nUgSZZzIT9rbHuiZGFDFBLkWpGhRjE3Rc_Vosa7m-r_dJnQ2uDxqbbWRwjNNKIaVQ3dnTZRenhRpMoJd5-X6UdTq4VOtaX-rJn9HU1PMsFZwpLCCLBB0lIgOXM-Kis3rprFaeNvS9DfU4PPzQ-x8ajDUHD2VIZCq22ROdsdyO7aOVLVCsUo0oft5WfhiB4ah80d8QC_FNGQWQqFyb2sPQg2QpvLCbTBbldYPtcXrJq_2S_q4O71xkrYymvCZkQiG4OrN4PK6_m9VXzst_CNbRWwU0Qz4h4Hm3jwG0W8rn-T3I0o663_VSPN5arZss9xLT1aIchHVLZ1ftpF7kpJzHt6n6m8CUyj0uKNjKg1R72ElP_jOGX1uXZf2-TILX5SXhyAZeRavCxP87odAFBmZbb7xAsXHGfd1K2D7ZmYQ",
							"type": "string"
						}
					]
				},
				"method": "GET",
				"header": [],
				"url": {
					"raw": "http://{{URL}}/api/products",
					"protocol": "http",
					"host": [
						"{{URL}}"
					],
					"path": [
						"api",
						"products"
					]
				}
			},
			"response": []
		},
		{
			"name": "Product Create",
			"request": {
				"auth": {
					"type": "bearer",
					"bearer": [
						{
							"key": "token",
							"value": "eyJ0eXAiOiJKV1QiLCJhbGciOiJSUzI1NiJ9.eyJpYXQiOjE2MTI0NDk4MTcsImV4cCI6MTYxMjQ1MzQxNywicm9sZXMiOlsiUk9MRV9VU0VSIl0sInVzZXJuYW1lIjoibWF4aW1lLnZhbGV0dGVAeW5vdi5jb20ifQ.Ipz4Bi6uisrcQn1CSbbFYZQZ4ahH3Xx-2MStNmn7MKNvNYQzklk8cmyQFI8NE1h4of0BMCqLKlyIL2IugY3_g8zMjkdiRMECRvXCMVDnTInELks5x0YML-gdkPNP6gXZdtK9tu60skO-DPsECj26x3fM2YkI9NReDnd9zbjnBtSzkaky0GCqabmyEpsCgwTydwchzWjJfn55296Ynk6r0NUTqhDGMN1kqOOu-ulKPIMXE4u-uuYG--oNPJBgxjsmgxgZBJeB_Zgr1IEmTStHhU7aU_AoRVR-JetjzraQfe_6i7impmAdZrfcbJdwFyFUfJwp1nU4DB7vkAfpplHTpTokBHI9kh_AGN74H3QFsz29K1cmPdK7mz1HcvasIqwyz6_gafuG5So6lLCJ_NwNR9wK33TURHbm1hvAC40EkBAz1GsDlRM8G6SIgzkTrg7M0Nddfz1eKEM1l9VrSCg0vMN9J6uxePfdiBe31R-V_g2QES3WFWgEil9ws9jfS1KbncqeeciooymxbDV_DwHPhtioCYdpZJ7U4A3AIdRgAyOHA8SXq5xYbZ4tt1YOFUGvGb4dLoRAcrs8gFtJIq3BUhMVH1H-byTcEuBv3bH16LegLl21ptt3kQR-FaJJWvbxNn5LKMAU3QCP2RuKstmMTv6P7sl5SyTXx9V2ykDlUSY",
							"type": "string"
						}
					]
				},
				"method": "POST",
				"header": [],
				"url": {
					"raw": "http://{{URL}}/api/products",
					"protocol": "http",
					"host": [
						"{{URL}}"
					],
					"path": [
						"api",
						"products"
					]
				}
			},
			"response": []
		}
	],
	"event": [
		{
			"listen": "prerequest",
			"script": {
				"type": "text/javascript",
				"exec": [
					""
				]
			}
		},
		{
			"listen": "test",
			"script": {
				"type": "text/javascript",
				"exec": [
					""
				]
			}
		}
	],
	"variable": [
		{
			"key": "URL",
			"value": "localhost:8000"
		}
	]
}